<?xml version="1.0" encoding="UTF-8" standalone="no"?>
<!-- Generator: Adobe Illustrator 22.0.1, SVG Export Plug-In . SVG Version: 6.00 Build 0)  -->
<svg
   xmlns:dc="http://purl.org/dc/elements/1.1/"
   xmlns:cc="http://web.resource.org/cc/"
   xmlns:rdf="http://www.w3.org/1999/02/22-rdf-syntax-ns#"
   xmlns:svg="http://www.w3.org/2000/svg"
   xmlns="http://www.w3.org/2000/svg"
   xmlns:xlink="http://www.w3.org/1999/xlink"
   xmlns:sodipodi="http://sodipodi.sourceforge.net/DTD/sodipodi-0.dtd"
   xmlns:inkscape="http://www.inkscape.org/namespaces/inkscape"
   version="1.0"
   id="Capa_1"
   x="0px"
   y="0px"
   viewBox="0 0 600 600"
   style="enable-background:new 0 0 600 600;"
   xml:space="preserve"
   sodipodi:version="0.32"
   inkscape:version="0.45.1"
   width="370"
   height="475"
   sodipodi:docname="sub-slide-1.svg"
   inkscape:output_extension="org.inkscape.output.svg.inkscape"
   sodipodi:docbase="C:\xampp\htdocs\xampp\img\web-build"
   inkscape:export-filename="C:\Users\Karin Pierre\Desktop\gif-2\9.png"
   inkscape:export-xdpi="90"
   inkscape:export-ydpi="90"><metadata
   id="metadata60"><rdf:RDF><cc:Work
       rdf:about=""><dc:format>image/svg+xml</dc:format><dc:type
         rdf:resource="http://purl.org/dc/dcmitype/StillImage" /></cc:Work></rdf:RDF></metadata><defs
   id="defs58"><linearGradient
   id="linearGradient42304"><stop
     id="stop42306"
     offset="0"
     style="stop-color:#210049;stop-opacity:0;" /><stop
     id="stop42308"
     offset="1"
     style="stop-color:#150042;stop-opacity:1;" /></linearGradient><linearGradient
   id="linearGradient41323"><stop
     id="stop41325"
     offset="0"
     style="stop-color:#510aa5;stop-opacity:0;" /><stop
     id="stop41327"
     offset="1"
     style="stop-color:#18004a;stop-opacity:1;" /></linearGradient><linearGradient
   id="linearGradient38295"
   gradientUnits="userSpaceOnUse"
   x1="163.539"
   y1="93.4842"
   x2="469.19681"
   y2="556.05731"
   gradientTransform="translate(-47.2679,-83.281545)">
			<stop
   offset="0.0051282"
   style="stop-color:#00ffc0;stop-opacity:1;"
   id="stop38297" />
			<stop
   offset="1"
   style="stop-color:#00ecff;stop-opacity:0;"
   id="stop38299" />
		</linearGradient><linearGradient
   gradientTransform="translate(-47.2679,-83.281545)"
   y2="556.05731"
   x2="469.19681"
   y1="93.4842"
   x1="163.539"
   gradientUnits="userSpaceOnUse"
   id="linearGradient38283">
			<stop
   id="stop38285"
   style="stop-color:#00ffc0;stop-opacity:1;"
   offset="0.0051282" />
			<stop
   id="stop38287"
   style="stop-color:#00ecff;stop-opacity:1;"
   offset="1" />
		</linearGradient><linearGradient
   id="linearGradient8077"><stop
     style="stop-color:#210a3d;stop-opacity:1;"
     offset="0"
     id="stop8079" /><stop
     style="stop-color:#2f0b79;stop-opacity:1"
     offset="1"
     id="stop8081" /></linearGradient><linearGradient
   id="linearGradient3170"><stop
     id="stop3172"
     offset="0"
     style="stop-color:#300092;stop-opacity:1;" /><stop
     id="stop3174"
     offset="1"
     style="stop-color:#d200ff;stop-opacity:1;" /></linearGradient><linearGradient
   id="linearGradient3155"><stop
     style="stop-color:#2f0b79;stop-opacity:1;"
     offset="0"
     id="stop3157" /><stop
     style="stop-color:#9501a9;stop-opacity:1;"
     offset="1"
     id="stop3159" /></linearGradient><linearGradient
   id="linearGradient20010"><stop
     style="stop-color:#412488;stop-opacity:1;"
     offset="0"
     id="stop20012" /><stop
     style="stop-color:#a226b6;stop-opacity:1;"
     offset="1"
     id="stop20014" /></linearGradient><linearGradient
   id="linearGradient12127"><stop
     id="stop12129"
     offset="0"
     style="stop-color:#a500ff;stop-opacity:1;" /><stop
     id="stop12131"
     offset="1"
     style="stop-color:#00f4ff;stop-opacity:1;" /></linearGradient>
	

		
		<linearGradient
   id="SVGID_1_"
   gradientUnits="userSpaceOnUse"
   x1="163.539"
   y1="93.4842"
   x2="469.19681"
   y2="556.05731"
   gradientTransform="translate(-47.2679,-83.281545)">
			<stop
   offset="0.0051282"
   style="stop-color:#00ffc0;stop-opacity:1;"
   id="stop12" />
			<stop
   offset="1"
   style="stop-color:#00ecff;stop-opacity:1;"
   id="stop14" />
		</linearGradient>
		
		
		
	<linearGradient
   inkscape:collect="always"
   xlink:href="#linearGradient3155"
   id="linearGradient3161"
   x1="726.23639"
   y1="385.0437"
   x2="729.85675"
   y2="291.25455"
   gradientUnits="userSpaceOnUse"
   gradientTransform="matrix(9.3974729,0,0,8.6647635,-5657.7563,-2880.078)" />
		
		
		
	<linearGradient
   gradientTransform="translate(-47.2679,-83.281545)"
   y2="556.05731"
   x2="469.19681"
   y1="93.4842"
   x1="163.539"
   gradientUnits="userSpaceOnUse"
   id="linearGradient2271">
			<stop
   id="stop2273"
   style="stop-color:#00ffc0;stop-opacity:1;"
   offset="0.0051282" />
			<stop
   id="stop2275"
   style="stop-color:#00ecff;stop-opacity:1;"
   offset="1" />
		</linearGradient>
	

		
		<linearGradient
   id="linearGradient2265"><stop
     style="stop-color:#a500ff;stop-opacity:1;"
     offset="0"
     id="stop2267" /><stop
     style="stop-color:#00f4ff;stop-opacity:1;"
     offset="1"
     id="stop2269" /></linearGradient><linearGradient
   inkscape:collect="always"
   xlink:href="#SVGID_1_"
   id="linearGradient3165"
   x1="-3535.9746"
   y1="495.28604"
   x2="-3553.04"
   y2="291.86783"
   gradientUnits="userSpaceOnUse"
   gradientTransform="matrix(0.3406877,0,0,0.3406877,-7668.9087,-276.37366)" /><linearGradient
   inkscape:collect="always"
   xlink:href="#SVGID_1_"
   id="linearGradient3175"
   gradientUnits="userSpaceOnUse"
   gradientTransform="matrix(0.3343832,0,-1.6822271e-8,0.3343832,-7980.9478,-41.296752)"
   x1="-3535.9746"
   y1="495.28604"
   x2="-3446.8691"
   y2="324.26492" />

<linearGradient
   inkscape:collect="always"
   xlink:href="#SVGID_1_"
   id="linearGradient2189"
   gradientUnits="userSpaceOnUse"
   gradientTransform="matrix(0.3343832,0,-1.682227e-8,0.3343832,-7848.0612,-56.585624)"
   x1="-3535.9746"
   y1="495.28604"
   x2="-3446.8691"
   y2="324.26492" /><linearGradient
   inkscape:collect="always"
   xlink:href="#SVGID_1_"
   id="linearGradient2193"
   gradientUnits="userSpaceOnUse"
   gradientTransform="matrix(0.3406877,0,0,0.3406877,-7659.3557,-175.54286)"
   x1="-3535.9746"
   y1="495.28604"
   x2="-3553.04"
   y2="291.86783" />

<linearGradient
   inkscape:collect="always"
   xlink:href="#SVGID_1_"
   id="linearGradient2191"
   gradientUnits="userSpaceOnUse"
   gradientTransform="matrix(0.3343832,0,-1.451058e-8,0.3343832,-7559.4116,29.08794)"
   x1="-3535.9746"
   y1="495.28604"
   x2="-3446.8691"
   y2="324.26492" /><linearGradient
   inkscape:collect="always"
   xlink:href="#SVGID_1_"
   id="linearGradient2195"
   gradientUnits="userSpaceOnUse"
   gradientTransform="matrix(0.5375793,0,0,0.5375793,-6517.606,-186.63945)"
   x1="-3535.9746"
   y1="495.28604"
   x2="-3553.04"
   y2="291.86783" /><linearGradient
   inkscape:collect="always"
   xlink:href="#linearGradient3155"
   id="linearGradient2198"
   gradientUnits="userSpaceOnUse"
   gradientTransform="matrix(1.5909884,0,0,48.504078,-3148.1686,-19966.443)"
   x1="726.23639"
   y1="385.0437"
   x2="729.85675"
   y2="291.25455" /><linearGradient
   inkscape:collect="always"
   xlink:href="#linearGradient3155"
   id="linearGradient4990"
   gradientUnits="userSpaceOnUse"
   gradientTransform="matrix(1.5909884,0,0,48.504078,-3148.1686,-19966.443)"
   x1="726.23639"
   y1="385.0437"
   x2="729.85675"
   y2="291.25455" /><linearGradient
   gradientTransform="translate(-17.507524,-52.522573)"
   gradientUnits="userSpaceOnUse"
   y2="247.18132"
   x2="323.17508"
   y1="525.16162"
   x1="316.68921"
   id="linearGradient3274"
   xlink:href="#SVGID_1_"
   inkscape:collect="always" /><linearGradient
   gradientTransform="translate(26.384101,-55.898852)"
   gradientUnits="userSpaceOnUse"
   y2="250.5576"
   x2="279.28345"
   y1="528.5379"
   x1="272.79758"
   id="linearGradient3272"
   xlink:href="#SVGID_1_"
   inkscape:collect="always" />
		
		
		
	<linearGradient
   gradientTransform="translate(-47.2679,-83.281545)"
   y2="556.05731"
   x2="469.19681"
   y1="93.4842"
   x1="163.539"
   gradientUnits="userSpaceOnUse"
   id="linearGradient3266">
			<stop
   id="stop3268"
   style="stop-color:#00ffc0;stop-opacity:1;"
   offset="0.0051282" />
			<stop
   id="stop3270"
   style="stop-color:#00ecff;stop-opacity:1;"
   offset="1" />
		</linearGradient>
	

		
		<linearGradient
   id="linearGradient3260"><stop
     style="stop-color:#a500ff;stop-opacity:1;"
     offset="0"
     id="stop3262" /><stop
     style="stop-color:#00f4ff;stop-opacity:1;"
     offset="1"
     id="stop3264" /></linearGradient><radialGradient
   inkscape:collect="always"
   xlink:href="#linearGradient8077"
   id="radialGradient23705"
   cx="301.01978"
   cy="-300.86771"
   fx="301.01978"
   fy="-300.86771"
   r="300.87512"
   gradientTransform="matrix(1.4362998,-8.5608046e-8,7.1289628e-8,1.1960719,-131.33488,58.991754)"
   gradientUnits="userSpaceOnUse" /><radialGradient
   inkscape:collect="always"
   xlink:href="#linearGradient38295"
   id="radialGradient38289"
   cx="688.55524"
   cy="108.8376"
   fx="688.55524"
   fy="108.8376"
   r="7.2018042"
   gradientTransform="matrix(1,0,0,23.208671,-91.870117,-2425.8217)"
   gradientUnits="userSpaceOnUse" /><radialGradient
   inkscape:collect="always"
   xlink:href="#linearGradient38295"
   id="radialGradient38291"
   cx="408.4747"
   cy="-114.30289"
   fx="408.4747"
   fy="-114.30289"
   r="7.201808"
   gradientTransform="matrix(1,0,0,28.38438,0,3130.1137)"
   gradientUnits="userSpaceOnUse" /><radialGradient
   inkscape:collect="always"
   xlink:href="#linearGradient38295"
   id="radialGradient38293"
   cx="-1.1202765"
   cy="-248.95613"
   fx="-1.1202765"
   fy="-248.95613"
   r="7.2018099"
   gradientTransform="matrix(1,0,0,28.384379,92.439794,6789.6223)"
   gradientUnits="userSpaceOnUse" /><radialGradient
   inkscape:collect="always"
   xlink:href="#linearGradient38295"
   id="radialGradient38303"
   gradientUnits="userSpaceOnUse"
   gradientTransform="matrix(0.7226016,0,0,16.770623,124.55591,-1402.0437)"
   cx="688.55524"
   cy="108.8376"
   fx="688.55524"
   fy="108.8376"
   r="7.2018042" /><radialGradient
   inkscape:collect="always"
   xlink:href="#linearGradient38295"
   id="radialGradient38307"
   gradientUnits="userSpaceOnUse"
   gradientTransform="matrix(0.7226016,0,0,16.770622,-606.1614,-2130.7351)"
   cx="688.55524"
   cy="108.8376"
   fx="688.55524"
   fy="108.8376"
   r="7.2018042" /><radialGradient
   inkscape:collect="always"
   xlink:href="#linearGradient41323"
   id="radialGradient40352"
   gradientUnits="userSpaceOnUse"
   gradientTransform="matrix(0.894203,-3.7238914e-8,5.0350098e-8,1.2005475,-939.74022,56.965967)"
   cx="301.01978"
   cy="-300.86771"
   fx="301.01978"
   fy="-300.86771"
   r="300.87512" /><linearGradient
   inkscape:collect="always"
   xlink:href="#linearGradient42304"
   id="linearGradient42302"
   x1="-617.75427"
   y1="-302.63965"
   x2="-542.5354"
   y2="-302.63965"
   gradientUnits="userSpaceOnUse"
   gradientTransform="translate(1143.8856,2.4005993)" /><linearGradient
   inkscape:collect="always"
   xlink:href="#linearGradient42304"
   id="linearGradient42312"
   gradientUnits="userSpaceOnUse"
   gradientTransform="translate(542.59243,1.7862824)"
   x1="-617.75427"
   y1="-302.63965"
   x2="-542.5354"
   y2="-302.63965" /><linearGradient
   inkscape:collect="always"
   xlink:href="#linearGradient42304"
   id="linearGradient42316"
   gradientUnits="userSpaceOnUse"
   gradientTransform="matrix(1,0,0,0.7760498,1228.7842,534.61866)"
   x1="-617.75427"
   y1="-302.63965"
   x2="-542.5354"
   y2="-302.63965" /><linearGradient
   inkscape:collect="always"
   xlink:href="#linearGradient42304"
   id="linearGradient42320"
   gradientUnits="userSpaceOnUse"
   gradientTransform="matrix(1.0000001,0,0,0.7760499,627.39268,534.33823)"
   x1="-617.75427"
   y1="-302.63965"
   x2="-542.5354"
   y2="-302.63965" /></defs><sodipodi:namedview
   inkscape:window-height="1006"
   inkscape:window-width="1916"
   inkscape:pageshadow="2"
   inkscape:pageopacity="0.0"
   guidetolerance="10.0"
   gridtolerance="10.0"
   objecttolerance="10.0"
   borderopacity="1.0"
   bordercolor="#666666"
   pagecolor="#ffffff"
   id="base"
   inkscape:zoom="0.71648337"
   inkscape:cx="124.94362"
   inkscape:cy="446.12515"
   inkscape:window-x="-6"
   inkscape:window-y="1"
   inkscape:current-layer="Capa_1"
   inkscape:object-bbox="false"
   width="370px"
   height="475px"
   borderlayer="true"
   showguides="true"
   inkscape:guide-bbox="true" />
<style
   type="text/css"
   id="style3">
	.st0{fill:#FFFFFF;}
	.st1{fill:url(#SVGID_1_);}
	.st2{fill:#132365;}
</style>



<rect
   style="opacity:1;fill:url(#radialGradient23705);fill-opacity:1.0;stroke:none;stroke-width:1.5;stroke-miterlimit:4;stroke-dasharray:none;stroke-opacity:1"
   id="rect8085"
   width="601.75024"
   height="771.79266"
   x="0.14466853"
   y="-686.76404"
   transform="scale(1,-1)" /><rect
   style="opacity:0.6;fill:url(#radialGradient38291);fill-opacity:1.0;stroke:none;stroke-width:1.5;stroke-miterlimit:4;stroke-dasharray:none;stroke-opacity:1"
   id="rect3279"
   width="14.403616"
   height="408.83771"
   x="401.27289"
   y="-318.72174"
   inkscape:export-filename="C:\Users\Karin Pierre\Desktop\1.png"
   inkscape:export-xdpi="90"
   inkscape:export-ydpi="90"
   transform="matrix(0.4143923,0.9100983,-0.9105829,0.4133265,0,0)" /><rect
   style="opacity:0.4;fill:url(#radialGradient38289);fill-opacity:1;stroke:none;stroke-width:1.5;stroke-miterlimit:4;stroke-dasharray:none;stroke-opacity:1"
   id="rect37302"
   width="14.403608"
   height="334.2886"
   x="589.48334"
   y="-66.990044"
   inkscape:export-filename="C:\Users\Karin Pierre\Desktop\1.png"
   inkscape:export-xdpi="90"
   inkscape:export-ydpi="90"
   transform="matrix(0.7506049,0.6607513,-0.6613101,0.7501126,0,0)" /><rect
   style="opacity:0.4;fill:url(#radialGradient38293);fill-opacity:1;stroke:none;stroke-width:1.5;stroke-miterlimit:4;stroke-dasharray:none;stroke-opacity:1"
   id="rect38279"
   width="14.40362"
   height="408.8378"
   x="84.117706"
   y="-481.26169"
   inkscape:export-filename="C:\Users\Karin Pierre\Desktop\1.png"
   inkscape:export-xdpi="90"
   inkscape:export-ydpi="90"
   transform="matrix(-0.1839281,0.9829397,-0.9827237,-0.1850788,0,0)" /><rect
   style="opacity:0.25;fill:url(#radialGradient38303);fill-opacity:1;stroke:none;stroke-width:1.5;stroke-miterlimit:4;stroke-dasharray:none;stroke-opacity:1"
   id="rect38301"
   width="10.408071"
   height="241.5575"
   x="616.90308"
   y="302.45184"
   inkscape:export-filename="C:\Users\Karin Pierre\Desktop\1.png"
   inkscape:export-xdpi="90"
   inkscape:export-ydpi="90"
   transform="matrix(0.9811188,0.1934062,-0.194137,0.9809744,0,0)" /><rect
   style="opacity:0.25;fill:url(#radialGradient38307);fill-opacity:1;stroke:none;stroke-width:1.5;stroke-miterlimit:4;stroke-dasharray:none;stroke-opacity:1"
   id="rect38305"
   width="10.40807"
   height="241.55748"
   x="-113.81422"
   y="-426.23959"
   inkscape:export-filename="C:\Users\Karin Pierre\Desktop\1.png"
   inkscape:export-xdpi="90"
   inkscape:export-ydpi="90"
   transform="matrix(-0.3487901,0.9372009,-0.9369408,-0.349488,0,0)" /></svg>