<?xml version="1.0" encoding="UTF-8" standalone="no"?>
<!-- Generator: Adobe Illustrator 22.0.1, SVG Export Plug-In . SVG Version: 6.00 Build 0)  -->
<svg
   xmlns:dc="http://purl.org/dc/elements/1.1/"
   xmlns:cc="http://web.resource.org/cc/"
   xmlns:rdf="http://www.w3.org/1999/02/22-rdf-syntax-ns#"
   xmlns:svg="http://www.w3.org/2000/svg"
   xmlns="http://www.w3.org/2000/svg"
   xmlns:xlink="http://www.w3.org/1999/xlink"
   xmlns:sodipodi="http://sodipodi.sourceforge.net/DTD/sodipodi-0.dtd"
   xmlns:inkscape="http://www.inkscape.org/namespaces/inkscape"
   version="1.0"
   id="Capa_1"
   x="0px"
   y="0px"
   viewBox="0 0 600 600"
   style="enable-background:new 0 0 600 600;"
   xml:space="preserve"
   sodipodi:version="0.32"
   inkscape:version="0.45.1"
   width="370"
   height="475"
   sodipodi:docname="sub-slide-2.svg"
   inkscape:output_extension="org.inkscape.output.svg.inkscape"
   sodipodi:docbase="C:\xampp\htdocs\xampp\img\web-build"
   inkscape:export-filename="C:\Users\Karin Pierre\Desktop\test.png"
   inkscape:export-xdpi="90"
   inkscape:export-ydpi="90"><metadata
   id="metadata60"><rdf:RDF><cc:Work
       rdf:about=""><dc:format>image/svg+xml</dc:format><dc:type
         rdf:resource="http://purl.org/dc/dcmitype/StillImage" /></cc:Work></rdf:RDF></metadata><defs
   id="defs58"><linearGradient
   id="linearGradient3155"><stop
     style="stop-color:#2f0b79;stop-opacity:1;"
     offset="0"
     id="stop3157" /><stop
     style="stop-color:#9501a9;stop-opacity:1;"
     offset="1"
     id="stop3159" /></linearGradient><linearGradient
   id="linearGradient20010"><stop
     style="stop-color:#412488;stop-opacity:1;"
     offset="0"
     id="stop20012" /><stop
     style="stop-color:#a226b6;stop-opacity:1;"
     offset="1"
     id="stop20014" /></linearGradient><linearGradient
   id="linearGradient12127"><stop
     id="stop12129"
     offset="0"
     style="stop-color:#a500ff;stop-opacity:1;" /><stop
     id="stop12131"
     offset="1"
     style="stop-color:#00f4ff;stop-opacity:1;" /></linearGradient>
	

		
		<linearGradient
   id="SVGID_1_"
   gradientUnits="userSpaceOnUse"
   x1="163.539"
   y1="93.4842"
   x2="469.19681"
   y2="556.05731"
   gradientTransform="translate(-47.2679,-83.281545)">
			<stop
   offset="0.0051282"
   style="stop-color:#00ffc0;stop-opacity:1;"
   id="stop12" />
			<stop
   offset="1"
   style="stop-color:#00ecff;stop-opacity:1;"
   id="stop14" />
		</linearGradient>
		
		
		
	<linearGradient
   inkscape:collect="always"
   xlink:href="#linearGradient3155"
   id="linearGradient3161"
   x1="726.23639"
   y1="385.0437"
   x2="729.85675"
   y2="291.25455"
   gradientUnits="userSpaceOnUse"
   gradientTransform="matrix(9.3974729,0,0,8.6647635,-5657.7563,-2880.078)" /><linearGradient
   gradientTransform="translate(-17.507524,-52.522573)"
   gradientUnits="userSpaceOnUse"
   y2="247.18132"
   x2="323.17508"
   y1="525.16162"
   x1="316.68921"
   id="linearGradient14077"
   xlink:href="#SVGID_1_"
   inkscape:collect="always" /><linearGradient
   gradientTransform="translate(26.384101,-55.898852)"
   gradientUnits="userSpaceOnUse"
   y2="250.5576"
   x2="279.28345"
   y1="528.5379"
   x1="272.79758"
   id="linearGradient12125"
   xlink:href="#SVGID_1_"
   inkscape:collect="always" />
		
		
		
	<linearGradient
   gradientTransform="translate(-47.2679,-83.281545)"
   y2="556.05731"
   x2="469.19681"
   y1="93.4842"
   x1="163.539"
   gradientUnits="userSpaceOnUse"
   id="linearGradient2271">
			<stop
   id="stop2273"
   style="stop-color:#00ffc0;stop-opacity:1;"
   offset="0.0051282" />
			<stop
   id="stop2275"
   style="stop-color:#00ecff;stop-opacity:1;"
   offset="1" />
		</linearGradient>
	

		
		<linearGradient
   id="linearGradient2265"><stop
     style="stop-color:#a500ff;stop-opacity:1;"
     offset="0"
     id="stop2267" /><stop
     style="stop-color:#00f4ff;stop-opacity:1;"
     offset="1"
     id="stop2269" /></linearGradient><linearGradient
   inkscape:collect="always"
   xlink:href="#SVGID_1_"
   id="linearGradient3165"
   x1="-3535.9746"
   y1="495.28604"
   x2="-3553.04"
   y2="291.86783"
   gradientUnits="userSpaceOnUse"
   gradientTransform="matrix(0.3406877,0,0,0.3406877,-7668.9087,-276.37366)" /><linearGradient
   inkscape:collect="always"
   xlink:href="#SVGID_1_"
   id="linearGradient3175"
   gradientUnits="userSpaceOnUse"
   gradientTransform="matrix(0.3343832,0,-1.6822271e-8,0.3343832,-7980.9478,-41.296752)"
   x1="-3535.9746"
   y1="495.28604"
   x2="-3446.8691"
   y2="324.26492" />

<linearGradient
   inkscape:collect="always"
   xlink:href="#SVGID_1_"
   id="linearGradient2189"
   gradientUnits="userSpaceOnUse"
   gradientTransform="matrix(0.3343832,0,-1.682227e-8,0.3343832,-7848.0612,-56.585624)"
   x1="-3535.9746"
   y1="495.28604"
   x2="-3446.8691"
   y2="324.26492" /><linearGradient
   inkscape:collect="always"
   xlink:href="#SVGID_1_"
   id="linearGradient2193"
   gradientUnits="userSpaceOnUse"
   gradientTransform="matrix(0.3406877,0,0,0.3406877,-7659.3557,-175.54286)"
   x1="-3535.9746"
   y1="495.28604"
   x2="-3553.04"
   y2="291.86783" />

<linearGradient
   inkscape:collect="always"
   xlink:href="#SVGID_1_"
   id="linearGradient2191"
   gradientUnits="userSpaceOnUse"
   gradientTransform="matrix(0.3343832,0,-1.451058e-8,0.3343832,-7559.4116,29.08794)"
   x1="-3535.9746"
   y1="495.28604"
   x2="-3446.8691"
   y2="324.26492" /><linearGradient
   inkscape:collect="always"
   xlink:href="#SVGID_1_"
   id="linearGradient2195"
   gradientUnits="userSpaceOnUse"
   gradientTransform="matrix(0.5375793,0,0,0.5375793,-6517.606,-186.63945)"
   x1="-3535.9746"
   y1="495.28604"
   x2="-3553.04"
   y2="291.86783" /><linearGradient
   inkscape:collect="always"
   xlink:href="#linearGradient3155"
   id="linearGradient2198"
   gradientUnits="userSpaceOnUse"
   gradientTransform="matrix(1.5909884,0,0,48.504078,-3148.1686,-19966.443)"
   x1="726.23639"
   y1="385.0437"
   x2="729.85675"
   y2="291.25455" /><filter
   inkscape:collect="always"
   x="-0.32649916"
   width="1.6529983"
   y="-0.27838603"
   height="1.556772"
   id="filter4979"><feGaussianBlur
     inkscape:collect="always"
     stdDeviation="122.87795"
     id="feGaussianBlur4981" /></filter><linearGradient
   inkscape:collect="always"
   xlink:href="#linearGradient3155"
   id="linearGradient4990"
   gradientUnits="userSpaceOnUse"
   gradientTransform="matrix(1.5909884,0,0,48.504078,-3148.1686,-19966.443)"
   x1="726.23639"
   y1="385.0437"
   x2="729.85675"
   y2="291.25455" /><linearGradient
   inkscape:collect="always"
   xlink:href="#linearGradient12127"
   id="linearGradient2196"
   gradientUnits="userSpaceOnUse"
   gradientTransform="matrix(0.3568738,0,0,11.123688,74.047355,-3824.7076)"
   x1="726.23639"
   y1="385.0437"
   x2="729.85675"
   y2="291.25455" /></defs><sodipodi:namedview
   inkscape:window-height="1017"
   inkscape:window-width="1920"
   inkscape:pageshadow="2"
   inkscape:pageopacity="0.0"
   guidetolerance="10.0"
   gridtolerance="10.0"
   objecttolerance="10.0"
   borderopacity="1.0"
   bordercolor="#666666"
   pagecolor="#ffffff"
   id="base"
   inkscape:zoom="1.0132605"
   inkscape:cx="796.27572"
   inkscape:cy="-26.90018"
   inkscape:window-x="0"
   inkscape:window-y="24"
   inkscape:current-layer="g8128"
   inkscape:object-bbox="false"
   width="370px"
   height="475px"
   borderlayer="true"
   showguides="true"
   inkscape:guide-bbox="true" />
<style
   type="text/css"
   id="style3">
	.st0{fill:#FFFFFF;}
	.st1{fill:url(#SVGID_1_);}
	.st2{fill:#132365;}
</style>



<rect
   style="fill:url(#linearGradient2196);fill-opacity:1.0;stroke:none;stroke-width:7.66941977;stroke-miterlimit:4;stroke-dasharray:none;stroke-opacity:1"
   id="rect18058"
   width="600.00012"
   height="770.27057"
   x="1.0197496"
   y="-85.893951" /><rect
   style="fill:#ff17fe;fill-opacity:1;stroke:none;stroke-width:1.5;stroke-miterlimit:4;stroke-dasharray:none;stroke-opacity:1;filter:url(#filter4979)"
   id="rect3164"
   width="76.63089"
   height="1316.6581"
   x="-3681.6509"
   y="-794.11609"
   transform="matrix(0.3053795,0.2154807,-0.2552729,0.2577766,1329.1162,958.11103)" /><rect
   style="fill:#ff17fe;fill-opacity:1;stroke:none;stroke-width:1.5;stroke-miterlimit:4;stroke-dasharray:none;stroke-opacity:1;filter:url(#filter4979)"
   id="rect4983"
   width="76.63089"
   height="1316.6581"
   x="-3681.6509"
   y="-794.11609"
   transform="matrix(0.3313997,0.2618286,-0.2770238,0.3132219,1476.1266,1389.3925)" /></svg>